@startuml

@startuml Use Case Diagram
!define DARKBLUE
!includeurl https://raw.githubusercontent.com/Drakemor/RedDress-PlantUML/master/style.puml

' Class Diagram'


legend
Legenda
|= Ikona za polje |= Ikona za metodu |= Vidljivost |
|<img src="https://s.plantuml.com/img/private-field.png">|<img src="https://s.plantuml.com/img/private-method.png">| privatna |
|<img src="https://s.plantuml.com/img/protected-field.png">|<img src="https://s.plantuml.com/img/protected-method.png">| zaštićena |
|<img src="https://s.plantuml.com/img/package-private-field.png">|<img src="https://s.plantuml.com/img/package-private-method.png">| package privatna |
|<img src="https://s.plantuml.com/img/public-field.png">|<img src="https://s.plantuml.com/img/public-method.png">| javna |
endlegend

'BASE Classes'
package BaseClasses {
  
  'Journalism'
  interface IJournalismBase {
    +DateCreated: Timestamp
    +DateUpdated: Timestamp
    +Role: Guid
    +Action: String
  }
  class JournalismBase implements IJournalismBase {}

  'Entity'
  interface IEntityBase {
    +Id

    +Bool Create()
    +object<Entity> Read()
    +Bool Update()
    +Bool Delete()
  }
  class EntityBase implements IEntityBase, IJournalismBase {}
  class EntityBase extends JournalismBase {}

 'Lookup'
  interface ILookupBase {
    +Abrv
    +Name
  }
  class LookupBase implements ILookupBase, IEntityBase {}
  class LookupBase extends EntityBase {}

}


'ENTITY Classes'
package EntityClasses {

  'Role'
  interface IRole extends LookupBase {
  }
  class Role implements IRoleType, ILookupBase {}

  'RoleSectionPolicy'
  interface IRoleSectionPolicy extends EntityBase {
    +Name
  }
  class RoleSectionPolicy implements IRoleSectionPolicy, IEntityBase {}

  'Section'
  interface ISection extends LookupBase {

  }
  class Section implements ISection, ILookupBase {}


  'SystemSection'
  interface ISection extends IEntityBase {

  }
  class Section implements ISection, IEntityBase {}


  'SystemType'
  interface ISystemType extends LookupBase{

  }
  class SystemType implements ISystemType, ILookupBase {}


  'System'
  interface ISystem extends EntityBase {

  }
  class System implements ISystem, IEntityBase {}
  
  'SystemDeviceType'
  interface ISystemDeviceType extends LookupBase {

  }
  class SystemDeviceType implements ISystemDeviceType, ILookupBase {}

  'SystemDevice'
  interface ISystemDevice extends EntityBase {

  }
  class SystemDevice implements ISystemDevice, IEntityBase {}
  
  class SystemElement extends EntityBase {
    -field1
    #field2
    ~method1()
    +method2()
  }

}


@enduml